tests/OneWare.Vcd.Parser.UnitTests/Assets/waveform.vcd
$date
	Wed Apr 22 17:48:00 2026
$end
$version
	Icarus Verilog
$end
$timescale
	1ps
$end
$scope module lut_mapping_tb $end
$var wire 1 ! o_out $end
$var reg 1 " i0 $end
$var reg 1 # i1 $end
$var reg 1 $ i2 $end
$var reg 1 % i3 $end
$var integer 32 & i [31:0] $end
$scope module dut $end
$var wire 1 " i0_in $end
$var wire 1 # i1_in $end
$var wire 1 $ i2_in $end
$var wire 1 % i3_in $end
$var wire 1 ! o_out $end
$scope module l2t4_inst $end
$var wire 1 " I0 $end
$var wire 1 # I1 $end
$var wire 1 $ I2 $end
$var wire 1 % I3 $end
$var wire 2 ' l10_s1 [1:0] $end
$var wire 2 ( l01_s1 [1:0] $end
$var wire 1 ) l01 $end
$var wire 2 * l00_s1 [1:0] $end
$var wire 1 + l00 $end
$var wire 1 ! O $end
$var parameter 4 , INIT_L00 $end
$var parameter 4 - INIT_L01 $end
$var parameter 4 . INIT_L10 $end
$upscope $end
$upscope $end
$upscope $end
$scope module lut_mapping_tb $end
$scope module dut $end
$upscope $end
$upscope $end
$enddefinitions $end
$comment Show the parameter values. $end
$dumpall
b1010 .
b0 -
b101 ,
$end
#0
$dumpvars
1+
b1 *
0)
b0 (
b10 '
b0 &
0%
0$
0#
0"
1!
$end
#10000
0!
0+
1"
b1 &
#20000
1!
1+
1#
0"
b10 &
#30000
0!
0+
1"
b11 &
#40000
1!
1+
1$
0#
0"
b100 &
#50000
0!
0+
1"
b101 &
#60000
1!
1+
1#
0"
b110 &
#70000
0!
0+
1"
b111 &
#80000
1!
1+
1%
0$
0#
0"
b1000 &
#90000
0!
0+
1"
b1001 &
#100000
1!
1+
1#
0"
b1010 &
#110000
0!
0+
1"
b1011 &
#120000
1!
1+
1$
0#
0"
b1100 &
#130000
0!
0+
1"
b1101 &
#140000
1!
1+
1#
0"
b1110 &
#150000
0!
0+
1"
b1111 &
#160000
b10000 &
